<?xml version="1.0" encoding="UTF-8" standalone="no"?>
<!DOCTYPE svg PUBLIC "-//W3C//DTD SVG 1.1//EN"
 "http://www.w3.org/Graphics/SVG/1.1/DTD/svg11.dtd">
<!-- Generated by graphviz version 8.0.5 (20230430.1635)
 -->
<!-- Title: snakemake_dag Pages: 1 -->
<svg width="400pt" height="476pt"
 viewBox="0.00 0.00 399.75 476.00" xmlns="http://www.w3.org/2000/svg" xmlns:xlink="http://www.w3.org/1999/xlink">
<g id="graph0" class="graph" transform="scale(1 1) rotate(0) translate(4 472)">
<title>snakemake_dag</title>
<polygon fill="white" stroke="none" points="-4,4 -4,-472 395.75,-472 395.75,4 -4,4"/>
<!-- 0 -->
<g id="node1" class="node">
<title>0</title>
<path fill="none" stroke="#56a2d8" stroke-width="2" stroke-dasharray="5,2" d="M211.62,-36C211.62,-36 181.62,-36 181.62,-36 175.62,-36 169.62,-30 169.62,-24 169.62,-24 169.62,-12 169.62,-12 169.62,-6 175.62,0 181.62,0 181.62,0 211.62,0 211.62,0 217.62,0 223.62,-6 223.62,-12 223.62,-12 223.62,-24 223.62,-24 223.62,-30 217.62,-36 211.62,-36"/>
<text text-anchor="middle" x="196.62" y="-14.88" font-family="sans" font-size="10.00">score</text>
</g>
<!-- 1 -->
<g id="node2" class="node">
<title>1</title>
<path fill="none" stroke="#56d87b" stroke-width="2" stroke-dasharray="5,2" d="M179.75,-108C179.75,-108 113.5,-108 113.5,-108 107.5,-108 101.5,-102 101.5,-96 101.5,-96 101.5,-84 101.5,-84 101.5,-78 107.5,-72 113.5,-72 113.5,-72 179.75,-72 179.75,-72 185.75,-72 191.75,-78 191.75,-84 191.75,-84 191.75,-96 191.75,-96 191.75,-102 185.75,-108 179.75,-108"/>
<text text-anchor="middle" x="146.62" y="-93.25" font-family="sans" font-size="10.00">train_model</text>
<text text-anchor="middle" x="146.62" y="-80.5" font-family="sans" font-size="10.00">model: dummy</text>
</g>
<!-- 1&#45;&gt;0 -->
<g id="edge1" class="edge">
<title>1&#45;&gt;0</title>
<path fill="none" stroke="grey" stroke-width="2" d="M159.24,-71.34C164.41,-64.1 170.53,-55.53 176.3,-47.45"/>
<polygon fill="grey" stroke="grey" stroke-width="2" points="179.87,-49.07 182.84,-38.9 174.18,-45 179.87,-49.07"/>
</g>
<!-- 2 -->
<g id="node3" class="node">
<title>2</title>
<path fill="none" stroke="#78d856" stroke-width="2" stroke-dasharray="5,2" d="M159.12,-252C159.12,-252 86.12,-252 86.12,-252 80.12,-252 74.12,-246 74.12,-240 74.12,-240 74.12,-228 74.12,-228 74.12,-222 80.12,-216 86.12,-216 86.12,-216 159.12,-216 159.12,-216 165.12,-216 171.12,-222 171.12,-228 171.12,-228 171.12,-240 171.12,-240 171.12,-246 165.12,-252 159.12,-252"/>
<text text-anchor="middle" x="122.62" y="-230.88" font-family="sans" font-size="10.00">preprocess_train</text>
</g>
<!-- 2&#45;&gt;1 -->
<g id="edge5" class="edge">
<title>2&#45;&gt;1</title>
<path fill="none" stroke="grey" stroke-width="2" d="M127.48,-215.45C130.18,-205.18 133.43,-191.93 135.62,-180 139.18,-160.67 141.9,-138.76 143.75,-121.51"/>
<polygon fill="grey" stroke="grey" stroke-width="2" points="147.51,-122.13 145.04,-111.82 140.55,-121.42 147.51,-122.13"/>
</g>
<!-- 6 -->
<g id="node7" class="node">
<title>6</title>
<path fill="none" stroke="#d85656" stroke-width="2" stroke-dasharray="5,2" d="M81.25,-180C81.25,-180 12,-180 12,-180 6,-180 0,-174 0,-168 0,-168 0,-156 0,-156 0,-150 6,-144 12,-144 12,-144 81.25,-144 81.25,-144 87.25,-144 93.25,-150 93.25,-156 93.25,-156 93.25,-168 93.25,-168 93.25,-174 87.25,-180 81.25,-180"/>
<text text-anchor="middle" x="46.62" y="-158.88" font-family="sans" font-size="10.00">preprocess_test</text>
</g>
<!-- 2&#45;&gt;6 -->
<g id="edge11" class="edge">
<title>2&#45;&gt;6</title>
<path fill="none" stroke="grey" stroke-width="2" d="M103.45,-215.34C94.96,-207.52 84.8,-198.16 75.43,-189.53"/>
<polygon fill="grey" stroke="grey" stroke-width="2" points="77.79,-187.1 68.06,-182.9 73.05,-192.25 77.79,-187.1"/>
</g>
<!-- 11 -->
<g id="node12" class="node">
<title>11</title>
<path fill="none" stroke="#56d87b" stroke-width="2" stroke-dasharray="5,2" d="M71.88,-108C71.88,-108 21.38,-108 21.38,-108 15.38,-108 9.38,-102 9.38,-96 9.38,-96 9.38,-84 9.38,-84 9.38,-78 15.38,-72 21.38,-72 21.38,-72 71.88,-72 71.88,-72 77.88,-72 83.88,-78 83.88,-84 83.88,-84 83.88,-96 83.88,-96 83.88,-102 77.88,-108 71.88,-108"/>
<text text-anchor="middle" x="46.62" y="-93.25" font-family="sans" font-size="10.00">train_model</text>
<text text-anchor="middle" x="46.62" y="-80.5" font-family="sans" font-size="10.00">model: lr</text>
</g>
<!-- 2&#45;&gt;11 -->
<g id="edge18" class="edge">
<title>2&#45;&gt;11</title>
<path fill="none" stroke="grey" stroke-width="2" d="M121.68,-215.18C120,-196.39 115.38,-166.44 102.62,-144 97.06,-134.21 89.11,-125.14 80.94,-117.36"/>
<polygon fill="grey" stroke="grey" stroke-width="2" points="83.18,-114.89 73.38,-110.87 78.53,-120.12 83.18,-114.89"/>
</g>
<!-- 3 -->
<g id="node4" class="node">
<title>3</title>
<path fill="none" stroke="#c6d856" stroke-width="2" stroke-dasharray="5,2" d="M155.5,-324C155.5,-324 87.75,-324 87.75,-324 81.75,-324 75.75,-318 75.75,-312 75.75,-312 75.75,-300 75.75,-300 75.75,-294 81.75,-288 87.75,-288 87.75,-288 155.5,-288 155.5,-288 161.5,-288 167.5,-294 167.5,-300 167.5,-300 167.5,-312 167.5,-312 167.5,-318 161.5,-324 155.5,-324"/>
<text text-anchor="middle" x="121.62" y="-309.25" font-family="sans" font-size="10.00">split</text>
<text text-anchor="middle" x="121.62" y="-296.5" font-family="sans" font-size="10.00">dataset: simple</text>
</g>
<!-- 3&#45;&gt;2 -->
<g id="edge7" class="edge">
<title>3&#45;&gt;2</title>
<path fill="none" stroke="grey" stroke-width="2" d="M121.88,-287.34C121.97,-280.75 122.08,-273.08 122.19,-265.67"/>
<polygon fill="grey" stroke="grey" stroke-width="2" points="125.73,-265.95 122.37,-255.9 118.73,-265.85 125.73,-265.95"/>
</g>
<!-- 3&#45;&gt;6 -->
<g id="edge10" class="edge">
<title>3&#45;&gt;6</title>
<path fill="none" stroke="grey" stroke-width="2" d="M96,-287.05C84.71,-277.84 72.29,-265.68 64.62,-252 54.67,-234.22 50.18,-211.71 48.17,-193.77"/>
<polygon fill="grey" stroke="grey" stroke-width="2" points="51.4,-193.49 47.05,-183.83 44.43,-194.09 51.4,-193.49"/>
</g>
<!-- 4 -->
<g id="node5" class="node">
<title>4</title>
<path fill="none" stroke="#d8a456" stroke-width="2" stroke-dasharray="5,2" d="M194.62,-396C194.62,-396 164.62,-396 164.62,-396 158.62,-396 152.62,-390 152.62,-384 152.62,-384 152.62,-372 152.62,-372 152.62,-366 158.62,-360 164.62,-360 164.62,-360 194.62,-360 194.62,-360 200.62,-360 206.62,-366 206.62,-372 206.62,-372 206.62,-384 206.62,-384 206.62,-390 200.62,-396 194.62,-396"/>
<text text-anchor="middle" x="179.62" y="-374.88" font-family="sans" font-size="10.00">create</text>
</g>
<!-- 4&#45;&gt;3 -->
<g id="edge8" class="edge">
<title>4&#45;&gt;3</title>
<path fill="none" stroke="grey" stroke-width="2" d="M164.99,-359.34C158.85,-351.93 151.57,-343.14 144.74,-334.9"/>
<polygon fill="grey" stroke="grey" stroke-width="2" points="146.53,-332.37 137.46,-326.9 141.14,-336.84 146.53,-332.37"/>
</g>
<!-- 9 -->
<g id="node10" class="node">
<title>9</title>
<path fill="none" stroke="#c6d856" stroke-width="2" stroke-dasharray="5,2" d="M277.88,-324C277.88,-324 197.38,-324 197.38,-324 191.38,-324 185.38,-318 185.38,-312 185.38,-312 185.38,-300 185.38,-300 185.38,-294 191.38,-288 197.38,-288 197.38,-288 277.88,-288 277.88,-288 283.88,-288 289.88,-294 289.88,-300 289.88,-300 289.88,-312 289.88,-312 289.88,-318 283.88,-324 277.88,-324"/>
<text text-anchor="middle" x="237.62" y="-309.25" font-family="sans" font-size="10.00">split</text>
<text text-anchor="middle" x="237.62" y="-296.5" font-family="sans" font-size="10.00">dataset: extended</text>
</g>
<!-- 4&#45;&gt;9 -->
<g id="edge15" class="edge">
<title>4&#45;&gt;9</title>
<path fill="none" stroke="grey" stroke-width="2" d="M194.26,-359.34C200.4,-351.93 207.68,-343.14 214.51,-334.9"/>
<polygon fill="grey" stroke="grey" stroke-width="2" points="218.11,-336.84 221.79,-326.9 212.72,-332.37 218.11,-336.84"/>
</g>
<!-- 5 -->
<g id="node6" class="node">
<title>5</title>
<path fill="none" stroke="#56d8c9" stroke-width="2" stroke-dasharray="5,2" d="M199.25,-468C199.25,-468 160,-468 160,-468 154,-468 148,-462 148,-456 148,-456 148,-444 148,-444 148,-438 154,-432 160,-432 160,-432 199.25,-432 199.25,-432 205.25,-432 211.25,-438 211.25,-444 211.25,-444 211.25,-456 211.25,-456 211.25,-462 205.25,-468 199.25,-468"/>
<text text-anchor="middle" x="179.62" y="-446.88" font-family="sans" font-size="10.00">download</text>
</g>
<!-- 5&#45;&gt;4 -->
<g id="edge9" class="edge">
<title>5&#45;&gt;4</title>
<path fill="none" stroke="grey" stroke-width="2" d="M179.62,-431.34C179.62,-424.75 179.62,-417.08 179.62,-409.67"/>
<polygon fill="grey" stroke="grey" stroke-width="2" points="183.13,-409.9 179.62,-399.9 176.13,-409.9 183.13,-409.9"/>
</g>
<!-- 6&#45;&gt;1 -->
<g id="edge6" class="edge">
<title>6&#45;&gt;1</title>
<path fill="none" stroke="grey" stroke-width="2" d="M72.12,-143.15C83.87,-134.93 98.03,-125.02 110.83,-116.06"/>
<polygon fill="grey" stroke="grey" stroke-width="2" points="112.99,-118.41 119.18,-109.81 108.98,-112.68 112.99,-118.41"/>
</g>
<!-- 6&#45;&gt;11 -->
<g id="edge19" class="edge">
<title>6&#45;&gt;11</title>
<path fill="none" stroke="grey" stroke-width="2" d="M46.62,-143.34C46.62,-136.75 46.62,-129.08 46.62,-121.67"/>
<polygon fill="grey" stroke="grey" stroke-width="2" points="50.13,-121.9 46.62,-111.9 43.13,-121.9 50.13,-121.9"/>
</g>
<!-- 7 -->
<g id="node8" class="node">
<title>7</title>
<path fill="none" stroke="#56d87b" stroke-width="2" stroke-dasharray="5,2" d="M379.75,-108C379.75,-108 313.5,-108 313.5,-108 307.5,-108 301.5,-102 301.5,-96 301.5,-96 301.5,-84 301.5,-84 301.5,-78 307.5,-72 313.5,-72 313.5,-72 379.75,-72 379.75,-72 385.75,-72 391.75,-78 391.75,-84 391.75,-84 391.75,-96 391.75,-96 391.75,-102 385.75,-108 379.75,-108"/>
<text text-anchor="middle" x="346.62" y="-93.25" font-family="sans" font-size="10.00">train_model</text>
<text text-anchor="middle" x="346.62" y="-80.5" font-family="sans" font-size="10.00">model: dummy</text>
</g>
<!-- 7&#45;&gt;0 -->
<g id="edge2" class="edge">
<title>7&#45;&gt;0</title>
<path fill="none" stroke="grey" stroke-width="2" d="M308.39,-71.15C286.27,-60.83 258.48,-47.87 236.15,-37.45"/>
<polygon fill="grey" stroke="grey" stroke-width="2" points="236.92,-34.01 226.38,-32.95 233.96,-40.35 236.92,-34.01"/>
</g>
<!-- 8 -->
<g id="node9" class="node">
<title>8</title>
<path fill="none" stroke="#78d856" stroke-width="2" stroke-dasharray="5,2" d="M350.12,-252C350.12,-252 277.12,-252 277.12,-252 271.12,-252 265.12,-246 265.12,-240 265.12,-240 265.12,-228 265.12,-228 265.12,-222 271.12,-216 277.12,-216 277.12,-216 350.12,-216 350.12,-216 356.12,-216 362.12,-222 362.12,-228 362.12,-228 362.12,-240 362.12,-240 362.12,-246 356.12,-252 350.12,-252"/>
<text text-anchor="middle" x="313.62" y="-230.88" font-family="sans" font-size="10.00">preprocess_train</text>
</g>
<!-- 8&#45;&gt;7 -->
<g id="edge12" class="edge">
<title>8&#45;&gt;7</title>
<path fill="none" stroke="grey" stroke-width="2" d="M318.04,-215.35C320.6,-205.06 323.85,-191.81 326.62,-180 331.2,-160.54 336.13,-138.62 339.94,-121.41"/>
<polygon fill="grey" stroke="grey" stroke-width="2" points="344,-121.27 342.74,-110.75 337.17,-119.76 344,-121.27"/>
</g>
<!-- 10 -->
<g id="node11" class="node">
<title>10</title>
<path fill="none" stroke="#d85656" stroke-width="2" stroke-dasharray="5,2" d="M272.25,-180C272.25,-180 203,-180 203,-180 197,-180 191,-174 191,-168 191,-168 191,-156 191,-156 191,-150 197,-144 203,-144 203,-144 272.25,-144 272.25,-144 278.25,-144 284.25,-150 284.25,-156 284.25,-156 284.25,-168 284.25,-168 284.25,-174 278.25,-180 272.25,-180"/>
<text text-anchor="middle" x="237.62" y="-158.88" font-family="sans" font-size="10.00">preprocess_test</text>
</g>
<!-- 8&#45;&gt;10 -->
<g id="edge17" class="edge">
<title>8&#45;&gt;10</title>
<path fill="none" stroke="grey" stroke-width="2" d="M294.45,-215.34C285.96,-207.52 275.8,-198.16 266.43,-189.53"/>
<polygon fill="grey" stroke="grey" stroke-width="2" points="268.79,-187.1 259.06,-182.9 264.05,-192.25 268.79,-187.1"/>
</g>
<!-- 12 -->
<g id="node13" class="node">
<title>12</title>
<path fill="none" stroke="#56d87b" stroke-width="2" stroke-dasharray="5,2" d="M271.88,-108C271.88,-108 221.38,-108 221.38,-108 215.38,-108 209.38,-102 209.38,-96 209.38,-96 209.38,-84 209.38,-84 209.38,-78 215.38,-72 221.38,-72 221.38,-72 271.88,-72 271.88,-72 277.88,-72 283.88,-78 283.88,-84 283.88,-84 283.88,-96 283.88,-96 283.88,-102 277.88,-108 271.88,-108"/>
<text text-anchor="middle" x="246.62" y="-93.25" font-family="sans" font-size="10.00">train_model</text>
<text text-anchor="middle" x="246.62" y="-80.5" font-family="sans" font-size="10.00">model: lr</text>
</g>
<!-- 8&#45;&gt;12 -->
<g id="edge20" class="edge">
<title>8&#45;&gt;12</title>
<path fill="none" stroke="grey" stroke-width="2" d="M312.25,-215.05C310.22,-196.41 305.32,-166.84 293.62,-144 288.95,-134.87 282.33,-126.06 275.53,-118.33"/>
<polygon fill="grey" stroke="grey" stroke-width="2" points="278.03,-115.75 268.63,-110.86 272.93,-120.54 278.03,-115.75"/>
</g>
<!-- 9&#45;&gt;8 -->
<g id="edge14" class="edge">
<title>9&#45;&gt;8</title>
<path fill="none" stroke="grey" stroke-width="2" d="M256.8,-287.34C265.29,-279.52 275.45,-270.16 284.82,-261.53"/>
<polygon fill="grey" stroke="grey" stroke-width="2" points="287.2,-264.25 292.19,-254.9 282.46,-259.1 287.2,-264.25"/>
</g>
<!-- 9&#45;&gt;10 -->
<g id="edge16" class="edge">
<title>9&#45;&gt;10</title>
<path fill="none" stroke="grey" stroke-width="2" d="M237.62,-287.02C237.62,-263.54 237.62,-222.11 237.62,-193.64"/>
<polygon fill="grey" stroke="grey" stroke-width="2" points="241.13,-193.84 237.62,-183.84 234.13,-193.84 241.13,-193.84"/>
</g>
<!-- 10&#45;&gt;7 -->
<g id="edge13" class="edge">
<title>10&#45;&gt;7</title>
<path fill="none" stroke="grey" stroke-width="2" d="M265.41,-143.15C278.35,-134.84 293.96,-124.82 308.02,-115.79"/>
<polygon fill="grey" stroke="grey" stroke-width="2" points="310.37,-118.16 316.89,-109.81 306.58,-112.27 310.37,-118.16"/>
</g>
<!-- 10&#45;&gt;12 -->
<g id="edge21" class="edge">
<title>10&#45;&gt;12</title>
<path fill="none" stroke="grey" stroke-width="2" d="M239.9,-143.34C240.74,-136.75 241.73,-129.08 242.68,-121.67"/>
<polygon fill="grey" stroke="grey" stroke-width="2" points="246.52,-122.27 244.32,-111.9 239.58,-121.37 246.52,-122.27"/>
</g>
<!-- 11&#45;&gt;0 -->
<g id="edge3" class="edge">
<title>11&#45;&gt;0</title>
<path fill="none" stroke="grey" stroke-width="2" d="M84.86,-71.15C106.98,-60.83 134.77,-47.87 157.1,-37.45"/>
<polygon fill="grey" stroke="grey" stroke-width="2" points="159.29,-40.35 166.87,-32.95 156.33,-34.01 159.29,-40.35"/>
</g>
<!-- 12&#45;&gt;0 -->
<g id="edge4" class="edge">
<title>12&#45;&gt;0</title>
<path fill="none" stroke="grey" stroke-width="2" d="M234.01,-71.34C228.84,-64.1 222.72,-55.53 216.95,-47.45"/>
<polygon fill="grey" stroke="grey" stroke-width="2" points="219.07,-45 210.41,-38.9 213.38,-49.07 219.07,-45"/>
</g>
</g>
</svg>
